{
  "outbounds" : [
    {
      "sendThrough" : "0.0.0.0",
      "mux" : {
        "enabled" : true,
        "concurrency" : 8
      },
      "protocol" : "vmess",
      "settings" : {
        "vnext" : [
          {
            "address" : "www.atn.io",
            "users" : [
              {
                "id" : "0a24cd7e-72d6-4e0b-898b-1f4975c96cfc",
                "alterId" : 64,
                "security" : "auto",
                "level" : 1
              }
            ],
            "port" : 443
          }
        ]
      },
      "tag" : "VPN1",
      "streamSettings" : {
        "wsSettings" : {
          "path" : "\/linode",
          "headers" : {
            "Host" : "www.atn.io"
          }
        },
        "quicSettings" : {
          "key" : "",
          "header" : {
            "type" : "none"
          },
          "security" : "none"
        },
        "tlsSettings" : {
          "allowInsecure" : true,
          "alpn" : [
            "http\/1.1"
          ],
          "serverName" : "www.atn.io",
          "allowInsecureCiphers" : true
        },
        "httpSettings" : {
          "path" : ""
        },
        "kcpSettings" : {
          "header" : {
            "type" : "srtp"
          },
          "mtu" : 1350,
          "congestion" : true,
          "tti" : 20,
          "uplinkCapacity" : 10,
          "writeBufferSize" : 10,
          "readBufferSize" : 10,
          "downlinkCapacity" : 100
        },
        "tcpSettings" : {
          "header" : {
            "type" : "none"
          }
        },
        "security" : "tls",
        "network" : "ws"
      }
    },
    {
      "sendThrough" : "0.0.0.0",
      "mux" : {
        "enabled" : true,
        "concurrency" : 8
      },
      "protocol" : "vmess",
      "settings" : {
        "vnext" : [
          {
            "address" : "back.atn.io",
            "users" : [
              {
                "id" : "0a24cd7e-72d6-4e0b-898b-1f4975c96cfc",
                "alterId" : 64,
                "security" : "auto",
                "level" : 1
              }
            ],
            "port" : 443
          }
        ]
      },
      "tag" : "VPN2",
      "streamSettings" : {
        "wsSettings" : {
          "path" : "\/ray",
          "headers" : {
            "Host" : "www.atn.io"
          }
        },
        "quicSettings" : {
          "key" : "",
          "header" : {
            "type" : "none"
          },
          "security" : "none"
        },
        "tlsSettings" : {
          "allowInsecure" : true,
          "alpn" : [
            "http\/1.1"
          ],
          "serverName" : "www.atn.io",
          "allowInsecureCiphers" : true
        },
        "httpSettings" : {
          "path" : ""
        },
        "kcpSettings" : {
          "header" : {
            "type" : "srtp"
          },
          "mtu" : 1350,
          "congestion" : true,
          "tti" : 20,
          "uplinkCapacity" : 10,
          "writeBufferSize" : 10,
          "readBufferSize" : 10,
          "downlinkCapacity" : 100
        },
        "tcpSettings" : {
          "header" : {
            "type" : "none"
          }
        },
        "security" : "tls",
        "network" : "ws"
      }
    },
    {
      "sendThrough" : "0.0.0.0",
      "mux" : {
        "enabled" : true,
        "concurrency" : 8
      },
      "protocol" : "vmess",
      "settings" : {
        "vnext" : [
          {
            "address" : "back1.atn.io",
            "users" : [
              {
                "id" : "0a24cd7e-72d6-4e0b-898b-1f4975c96cfc",
                "alterId" : 64,
                "security" : "auto",
                "level" : 1
              }
            ],
            "port" : 443
          }
        ]
      },
      "tag" : "VPN3",
      "streamSettings" : {
        "wsSettings" : {
          "path" : "\/ray",
          "headers" : {
            "Host" : "www.atn.io"
          }
        },
        "quicSettings" : {
          "key" : "",
          "security" : "none",
          "header" : {
            "type" : "none"
          }
        },
        "tlsSettings" : {
          "allowInsecure" : true,
          "alpn" : [
            "http\/1.1"
          ],
          "serverName" : "www.atn.io",
          "allowInsecureCiphers" : true
        },
        "httpSettings" : {
          "path" : ""
        },
        "kcpSettings" : {
          "header" : {
            "type" : "srtp"
          },
          "mtu" : 1350,
          "congestion" : true,
          "tti" : 20,
          "uplinkCapacity" : 10,
          "writeBufferSize" : 10,
          "readBufferSize" : 10,
          "downlinkCapacity" : 100
        },
        "tcpSettings" : {
          "header" : {
            "type" : "none"
          }
        },
        "security" : "tls",
        "network" : "ws"
      }
    },
    {
      "sendThrough" : "0.0.0.0",
      "mux" : {
        "enabled" : true,
        "concurrency" : 8
      },
      "protocol" : "vmess",
      "settings" : {
        "vnext" : [
          {
            "address" : "back1.atn.io",
            "users" : [
              {
                "id" : "0a24cd7e-72d6-4e0b-898b-1f4975c96cfc",
                "alterId" : 64,
                "security" : "auto",
                "level" : 1
              }
            ],
            "port" : 443
          }
        ]
      },
      "tag" : "VPN4",
      "streamSettings" : {
        "wsSettings" : {
          "path" : "\/linode",
          "headers" : {
            "Host" : "www.atn.io"
          }
        },
        "quicSettings" : {
          "key" : "",
          "header" : {
            "type" : "none"
          },
          "security" : "none"
        },
        "tlsSettings" : {
          "allowInsecure" : true,
          "alpn" : [
            "http\/1.1"
          ],
          "serverName" : "www.atn.io",
          "allowInsecureCiphers" : true
        },
        "httpSettings" : {
          "path" : ""
        },
        "kcpSettings" : {
          "header" : {
            "type" : "srtp"
          },
          "mtu" : 1350,
          "congestion" : true,
          "tti" : 20,
          "uplinkCapacity" : 10,
          "writeBufferSize" : 10,
          "readBufferSize" : 10,
          "downlinkCapacity" : 100
        },
        "tcpSettings" : {
          "header" : {
            "type" : "none"
          }
        },
        "security" : "tls",
        "network" : "ws"
      }
    },
    {
      "sendThrough" : "0.0.0.0",
      "mux" : {
        "enabled" : false,
        "concurrency" : 8
      },
      "protocol" : "vmess",
      "settings" : {
        "vnext" : [
          {
            "address" : "lightsail.atn.io",
            "users" : [
              {
                "id" : "0a24cd7e-72d6-4e0b-898b-1f4975c96cfc",
                "alterId" : 64,
                "security" : "auto",
                "level" : 1
              }
            ],
            "port" : 80
          }
        ]
      },
      "tag" : "VPN5",
      "streamSettings" : {
        "wsSettings" : {
          "path" : "",
          "headers" : {

          }
        },
        "quicSettings" : {
          "key" : "",
          "security" : "none",
          "header" : {
            "type" : "none"
          }
        },
        "tlsSettings" : {
          "allowInsecure" : false,
          "alpn" : [
            "http\/1.1"
          ],
          "serverName" : "server.cc",
          "allowInsecureCiphers" : false
        },
        "httpSettings" : {
          "path" : ""
        },
        "kcpSettings" : {
          "header" : {
            "type" : "none"
          },
          "mtu" : 1350,
          "congestion" : false,
          "tti" : 20,
          "uplinkCapacity" : 5,
          "writeBufferSize" : 1,
          "readBufferSize" : 1,
          "downlinkCapacity" : 20
        },
        "tcpSettings" : {
          "header" : {
            "type" : "none"
          }
        },
        "security" : "none",
        "network" : "tcp"
      }
    }
  ],
  "routings" : [
    {
      "name" : "all_to_main",
      "domainStrategy" : "AsIs",
      "rules" : [
        {
          "type" : "field",
          "outboundTag" : "main",
          "port" : "0-65535"
        }
      ]
    },
    {
      "name" : "bypasscn_private_apple",
      "domainStrategy" : "IPIfNonMatch",
      "rules" : [
        {
          "type" : "field",
          "outboundTag" : "direct",
          "domain" : [
            "localhost",
            "domain:me.com",
            "domain:lookup-api.apple.com",
            "domain:icloud-content.com",
            "domain:icloud.com",
            "domain:cdn-apple.com",
            "domain:apple-cloudkit.com",
            "domain:apple.com",
            "domain:apple.co",
            "domain:aaplimg.com",
            "domain:guzzoni.apple.com",
            "geosite:cn"
          ]
        },
        {
          "type" : "field",
          "outboundTag" : "direct",
          "ip" : [
            "geoip:private",
            "geoip:cn"
          ]
        },
        {
          "type" : "field",
          "outboundTag" : "main",
          "port" : "0-65535"
        }
      ]
    },
    {
      "name" : "all_to_direct",
      "domainStrategy" : "AsIs",
      "rules" : [
        {
          "type" : "field",
          "outboundTag" : "direct",
          "port" : "0-65535"
        }
      ]
    },
    {
      "name" : "all_to_main",
      "domainStrategy" : "AsIs",
      "rules" : [
        {
          "type" : "field",
          "outboundTag" : "main",
          "port" : "0-65535"
        }
      ]
    },
    {
      "name" : "bypasscn_private_apple",
      "domainStrategy" : "IPIfNonMatch",
      "rules" : [
        {
          "type" : "field",
          "outboundTag" : "direct",
          "domain" : [
            "localhost",
            "domain:me.com",
            "domain:lookup-api.apple.com",
            "domain:icloud-content.com",
            "domain:icloud.com",
            "domain:cdn-apple.com",
            "domain:apple-cloudkit.com",
            "domain:apple.com",
            "domain:apple.co",
            "domain:aaplimg.com",
            "domain:guzzoni.apple.com",
            "geosite:cn"
          ]
        },
        {
          "type" : "field",
          "outboundTag" : "direct",
          "ip" : [
            "geoip:private",
            "geoip:cn"
          ]
        },
        {
          "type" : "field",
          "outboundTag" : "main",
          "port" : "0-65535"
        }
      ]
    },
    {
      "name" : "all_to_direct",
      "domainStrategy" : "AsIs",
      "rules" : [
        {
          "type" : "field",
          "outboundTag" : "direct",
          "port" : "0-65535"
        }
      ]
    },
    {
      "name" : "all_to_main",
      "domainStrategy" : "AsIs",
      "rules" : [
        {
          "type" : "field",
          "outboundTag" : "main",
          "port" : "0-65535"
        }
      ]
    },
    {
      "name" : "bypasscn_private_apple",
      "domainStrategy" : "IPIfNonMatch",
      "rules" : [
        {
          "type" : "field",
          "outboundTag" : "direct",
          "domain" : [
            "localhost",
            "domain:me.com",
            "domain:lookup-api.apple.com",
            "domain:icloud-content.com",
            "domain:icloud.com",
            "domain:cdn-apple.com",
            "domain:apple-cloudkit.com",
            "domain:apple.com",
            "domain:apple.co",
            "domain:aaplimg.com",
            "domain:guzzoni.apple.com",
            "geosite:cn"
          ]
        },
        {
          "type" : "field",
          "outboundTag" : "direct",
          "ip" : [
            "geoip:private",
            "geoip:cn"
          ]
        },
        {
          "type" : "field",
          "outboundTag" : "main",
          "port" : "0-65535"
        }
      ]
    },
    {
      "name" : "all_to_direct",
      "domainStrategy" : "AsIs",
      "rules" : [
        {
          "type" : "field",
          "outboundTag" : "direct",
          "port" : "0-65535"
        }
      ]
    },
    {
      "name" : "all_to_main",
      "domainStrategy" : "AsIs",
      "rules" : [
        {
          "type" : "field",
          "outboundTag" : "main",
          "port" : "0-65535"
        }
      ]
    },
    {
      "name" : "bypasscn_private_apple",
      "domainStrategy" : "IPIfNonMatch",
      "rules" : [
        {
          "type" : "field",
          "outboundTag" : "direct",
          "domain" : [
            "localhost",
            "domain:me.com",
            "domain:lookup-api.apple.com",
            "domain:icloud-content.com",
            "domain:icloud.com",
            "domain:cdn-apple.com",
            "domain:apple-cloudkit.com",
            "domain:apple.com",
            "domain:apple.co",
            "domain:aaplimg.com",
            "domain:guzzoni.apple.com",
            "geosite:cn"
          ]
        },
        {
          "type" : "field",
          "outboundTag" : "direct",
          "ip" : [
            "geoip:private",
            "geoip:cn"
          ]
        },
        {
          "type" : "field",
          "outboundTag" : "main",
          "port" : "0-65535"
        }
      ]
    },
    {
      "name" : "all_to_direct",
      "domainStrategy" : "AsIs",
      "rules" : [
        {
          "type" : "field",
          "outboundTag" : "direct",
          "port" : "0-65535"
        }
      ]
    },
    {
      "name" : "all_to_main",
      "domainStrategy" : "AsIs",
      "rules" : [
        {
          "type" : "field",
          "outboundTag" : "direct",
          "domain" : [
            "localhost",
            "127.0.0.1"
          ]
        },
        {
          "type" : "field",
          "outboundTag" : "main",
          "port" : "0-65535"
        }
      ]
    },
    {
      "name" : "bypasscn_private_apple",
      "domainStrategy" : "IPIfNonMatch",
      "rules" : [
        {
          "type" : "field",
          "outboundTag" : "direct",
          "domain" : [
            "localhost",
            "domain:me.com",
            "domain:lookup-api.apple.com",
            "domain:icloud-content.com",
            "domain:icloud.com",
            "domain:cdn-apple.com",
            "domain:apple-cloudkit.com",
            "domain:apple.com",
            "domain:apple.co",
            "domain:aaplimg.com",
            "domain:guzzoni.apple.com",
            "geosite:cn"
          ]
        },
        {
          "type" : "field",
          "outboundTag" : "direct",
          "ip" : [
            "geoip:private",
            "geoip:cn"
          ]
        },
        {
          "type" : "field",
          "outboundTag" : "main",
          "port" : "0-65535"
        }
      ]
    },
    {
      "name" : "all_to_direct",
      "domainStrategy" : "AsIs",
      "rules" : [
        {
          "type" : "field",
          "outboundTag" : "direct",
          "port" : "0-65535"
        }
      ]
    },
    {
      "name" : "all_to_main",
      "domainStrategy" : "AsIs",
      "rules" : [
        {
          "type" : "field",
          "outboundTag" : "main",
          "port" : "0-65535"
        }
      ]
    },
    {
      "name" : "bypasscn_private_apple",
      "domainStrategy" : "IPIfNonMatch",
      "rules" : [
        {
          "type" : "field",
          "outboundTag" : "direct",
          "domain" : [
            "localhost",
            "domain:me.com",
            "domain:lookup-api.apple.com",
            "domain:icloud-content.com",
            "domain:icloud.com",
            "domain:cdn-apple.com",
            "domain:apple-cloudkit.com",
            "domain:apple.com",
            "domain:apple.co",
            "domain:aaplimg.com",
            "domain:guzzoni.apple.com",
            "geosite:cn"
          ]
        },
        {
          "type" : "field",
          "outboundTag" : "direct",
          "ip" : [
            "geoip:private",
            "geoip:cn"
          ]
        },
        {
          "type" : "field",
          "outboundTag" : "main",
          "port" : "0-65535"
        }
      ]
    },
    {
      "name" : "all_to_direct",
      "domainStrategy" : "AsIs",
      "rules" : [
        {
          "type" : "field",
          "outboundTag" : "direct",
          "port" : "0-65535"
        }
      ]
    },
    {
      "name" : "all_to_main",
      "domainStrategy" : "AsIs",
      "rules" : [
        {
          "type" : "field",
          "outboundTag" : "main",
          "port" : "0-65535"
        }
      ]
    },
    {
      "name" : "bypasscn_private_apple",
      "domainStrategy" : "IPIfNonMatch",
      "rules" : [
        {
          "type" : "field",
          "outboundTag" : "direct",
          "domain" : [
            "localhost",
            "domain:me.com",
            "domain:lookup-api.apple.com",
            "domain:icloud-content.com",
            "domain:icloud.com",
            "domain:cdn-apple.com",
            "domain:apple-cloudkit.com",
            "domain:apple.com",
            "domain:apple.co",
            "domain:aaplimg.com",
            "domain:guzzoni.apple.com",
            "geosite:cn"
          ]
        },
        {
          "type" : "field",
          "outboundTag" : "direct",
          "ip" : [
            "geoip:private",
            "geoip:cn"
          ]
        },
        {
          "type" : "field",
          "outboundTag" : "main",
          "port" : "0-65535"
        }
      ]
    },
    {
      "name" : "all_to_direct",
      "domainStrategy" : "AsIs",
      "rules" : [
        {
          "type" : "field",
          "outboundTag" : "direct",
          "port" : "0-65535"
        }
      ]
    }
  ]
}